('C:\\python\\pythonNS_library\\build\\Gets_tools_GUI\\PYZ-00.pyz',
 [('os',
   'c:\\users\\nicolas\\appdata\\local\\programs\\python\\python38\\lib\\os.py',
   'PYMODULE'),
  ('subprocess',
   'c:\\users\\nicolas\\appdata\\local\\programs\\python\\python38\\lib\\subprocess.py',
   'PYMODULE'),
  ('selectors',
   'c:\\users\\nicolas\\appdata\\local\\programs\\python\\python38\\lib\\selectors.py',
   'PYMODULE'),
  ('contextlib',
   'c:\\users\\nicolas\\appdata\\local\\programs\\python\\python38\\lib\\contextlib.py',
   'PYMODULE'),
  ('signal',
   'c:\\users\\nicolas\\appdata\\local\\programs\\python\\python38\\lib\\signal.py',
   'PYMODULE'),
  ('ntpath',
   'c:\\users\\nicolas\\appdata\\local\\programs\\python\\python38\\lib\\ntpath.py',
   'PYMODULE'),
  ('string',
   'c:\\users\\nicolas\\appdata\\local\\programs\\python\\python38\\lib\\string.py',
   'PYMODULE'),
  ('genericpath',
   'c:\\users\\nicolas\\appdata\\local\\programs\\python\\python38\\lib\\genericpath.py',
   'PYMODULE'),
  ('posixpath',
   'c:\\users\\nicolas\\appdata\\local\\programs\\python\\python38\\lib\\posixpath.py',
   'PYMODULE'),
  ('stat',
   'c:\\users\\nicolas\\appdata\\local\\programs\\python\\python38\\lib\\stat.py',
   'PYMODULE'),
  ('ssl',
   'c:\\users\\nicolas\\appdata\\local\\programs\\python\\python38\\lib\\ssl.py',
   'PYMODULE'),
  ('calendar',
   'c:\\users\\nicolas\\appdata\\local\\programs\\python\\python38\\lib\\calendar.py',
   'PYMODULE'),
  ('argparse',
   'c:\\users\\nicolas\\appdata\\local\\programs\\python\\python38\\lib\\argparse.py',
   'PYMODULE'),
  ('textwrap',
   'c:\\users\\nicolas\\appdata\\local\\programs\\python\\python38\\lib\\textwrap.py',
   'PYMODULE'),
  ('copy',
   'c:\\users\\nicolas\\appdata\\local\\programs\\python\\python38\\lib\\copy.py',
   'PYMODULE'),
  ('gettext',
   'c:\\users\\nicolas\\appdata\\local\\programs\\python\\python38\\lib\\gettext.py',
   'PYMODULE'),
  ('struct',
   'c:\\users\\nicolas\\appdata\\local\\programs\\python\\python38\\lib\\struct.py',
   'PYMODULE'),
  ('shutil',
   'c:\\users\\nicolas\\appdata\\local\\programs\\python\\python38\\lib\\shutil.py',
   'PYMODULE'),
  ('zipfile',
   'c:\\users\\nicolas\\appdata\\local\\programs\\python\\python38\\lib\\zipfile.py',
   'PYMODULE'),
  ('py_compile',
   'c:\\users\\nicolas\\appdata\\local\\programs\\python\\python38\\lib\\py_compile.py',
   'PYMODULE'),
  ('importlib.machinery',
   'c:\\users\\nicolas\\appdata\\local\\programs\\python\\python38\\lib\\importlib\\machinery.py',
   'PYMODULE'),
  ('importlib',
   'c:\\users\\nicolas\\appdata\\local\\programs\\python\\python38\\lib\\importlib\\__init__.py',
   'PYMODULE'),
  ('importlib._bootstrap',
   'c:\\users\\nicolas\\appdata\\local\\programs\\python\\python38\\lib\\importlib\\_bootstrap.py',
   'PYMODULE'),
  ('importlib._bootstrap_external',
   'c:\\users\\nicolas\\appdata\\local\\programs\\python\\python38\\lib\\importlib\\_bootstrap_external.py',
   'PYMODULE'),
  ('importlib.metadata',
   'c:\\users\\nicolas\\appdata\\local\\programs\\python\\python38\\lib\\importlib\\metadata.py',
   'PYMODULE'),
  ('importlib.abc',
   'c:\\users\\nicolas\\appdata\\local\\programs\\python\\python38\\lib\\importlib\\abc.py',
   'PYMODULE'),
  ('pathlib',
   'c:\\users\\nicolas\\appdata\\local\\programs\\python\\python38\\lib\\pathlib.py',
   'PYMODULE'),
  ('urllib.parse',
   'c:\\users\\nicolas\\appdata\\local\\programs\\python\\python38\\lib\\urllib\\parse.py',
   'PYMODULE'),
  ('urllib',
   'c:\\users\\nicolas\\appdata\\local\\programs\\python\\python38\\lib\\urllib\\__init__.py',
   'PYMODULE'),
  ('email',
   'c:\\users\\nicolas\\appdata\\local\\programs\\python\\python38\\lib\\email\\__init__.py',
   'PYMODULE'),
  ('email.parser',
   'c:\\users\\nicolas\\appdata\\local\\programs\\python\\python38\\lib\\email\\parser.py',
   'PYMODULE'),
  ('email._policybase',
   'c:\\users\\nicolas\\appdata\\local\\programs\\python\\python38\\lib\\email\\_policybase.py',
   'PYMODULE'),
  ('email.utils',
   'c:\\users\\nicolas\\appdata\\local\\programs\\python\\python38\\lib\\email\\utils.py',
   'PYMODULE'),
  ('email._parseaddr',
   'c:\\users\\nicolas\\appdata\\local\\programs\\python\\python38\\lib\\email\\_parseaddr.py',
   'PYMODULE'),
  ('random',
   'c:\\users\\nicolas\\appdata\\local\\programs\\python\\python38\\lib\\random.py',
   'PYMODULE'),
  ('hashlib',
   'c:\\users\\nicolas\\appdata\\local\\programs\\python\\python38\\lib\\hashlib.py',
   'PYMODULE'),
  ('logging',
   'c:\\users\\nicolas\\appdata\\local\\programs\\python\\python38\\lib\\logging\\__init__.py',
   'PYMODULE'),
  ('pickle',
   'c:\\users\\nicolas\\appdata\\local\\programs\\python\\python38\\lib\\pickle.py',
   'PYMODULE'),
  ('pprint',
   'c:\\users\\nicolas\\appdata\\local\\programs\\python\\python38\\lib\\pprint.py',
   'PYMODULE'),
  ('doctest',
   'c:\\users\\nicolas\\appdata\\local\\programs\\python\\python38\\lib\\doctest.py',
   'PYMODULE'),
  ('unittest',
   'c:\\users\\nicolas\\appdata\\local\\programs\\python\\python38\\lib\\unittest\\__init__.py',
   'PYMODULE'),
  ('unittest.signals',
   'c:\\users\\nicolas\\appdata\\local\\programs\\python\\python38\\lib\\unittest\\signals.py',
   'PYMODULE'),
  ('unittest.main',
   'c:\\users\\nicolas\\appdata\\local\\programs\\python\\python38\\lib\\unittest\\main.py',
   'PYMODULE'),
  ('unittest.runner',
   'c:\\users\\nicolas\\appdata\\local\\programs\\python\\python38\\lib\\unittest\\runner.py',
   'PYMODULE'),
  ('unittest.loader',
   'c:\\users\\nicolas\\appdata\\local\\programs\\python\\python38\\lib\\unittest\\loader.py',
   'PYMODULE'),
  ('unittest.suite',
   'c:\\users\\nicolas\\appdata\\local\\programs\\python\\python38\\lib\\unittest\\suite.py',
   'PYMODULE'),
  ('unittest.case',
   'c:\\users\\nicolas\\appdata\\local\\programs\\python\\python38\\lib\\unittest\\case.py',
   'PYMODULE'),
  ('unittest.async_case',
   'c:\\users\\nicolas\\appdata\\local\\programs\\python\\python38\\lib\\unittest\\async_case.py',
   'PYMODULE'),
  ('unittest.result',
   'c:\\users\\nicolas\\appdata\\local\\programs\\python\\python38\\lib\\unittest\\result.py',
   'PYMODULE'),
  ('unittest.util',
   'c:\\users\\nicolas\\appdata\\local\\programs\\python\\python38\\lib\\unittest\\util.py',
   'PYMODULE'),
  ('pdb',
   'c:\\users\\nicolas\\appdata\\local\\programs\\python\\python38\\lib\\pdb.py',
   'PYMODULE'),
  ('getopt',
   'c:\\users\\nicolas\\appdata\\local\\programs\\python\\python38\\lib\\getopt.py',
   'PYMODULE'),
  ('pydoc',
   'c:\\users\\nicolas\\appdata\\local\\programs\\python\\python38\\lib\\pydoc.py',
   'PYMODULE'),
  ('webbrowser',
   'c:\\users\\nicolas\\appdata\\local\\programs\\python\\python38\\lib\\webbrowser.py',
   'PYMODULE'),
  ('email.message',
   'c:\\users\\nicolas\\appdata\\local\\programs\\python\\python38\\lib\\email\\message.py',
   'PYMODULE'),
  ('email.policy',
   'c:\\users\\nicolas\\appdata\\local\\programs\\python\\python38\\lib\\email\\policy.py',
   'PYMODULE'),
  ('email.contentmanager',
   'c:\\users\\nicolas\\appdata\\local\\programs\\python\\python38\\lib\\email\\contentmanager.py',
   'PYMODULE'),
  ('email.quoprimime',
   'c:\\users\\nicolas\\appdata\\local\\programs\\python\\python38\\lib\\email\\quoprimime.py',
   'PYMODULE'),
  ('email.headerregistry',
   'c:\\users\\nicolas\\appdata\\local\\programs\\python\\python38\\lib\\email\\headerregistry.py',
   'PYMODULE'),
  ('email.iterators',
   'c:\\users\\nicolas\\appdata\\local\\programs\\python\\python38\\lib\\email\\iterators.py',
   'PYMODULE'),
  ('email.generator',
   'c:\\users\\nicolas\\appdata\\local\\programs\\python\\python38\\lib\\email\\generator.py',
   'PYMODULE'),
  ('email._encoded_words',
   'c:\\users\\nicolas\\appdata\\local\\programs\\python\\python38\\lib\\email\\_encoded_words.py',
   'PYMODULE'),
  ('quopri',
   'c:\\users\\nicolas\\appdata\\local\\programs\\python\\python38\\lib\\quopri.py',
   'PYMODULE'),
  ('uu',
   'c:\\users\\nicolas\\appdata\\local\\programs\\python\\python38\\lib\\uu.py',
   'PYMODULE'),
  ('optparse',
   'c:\\users\\nicolas\\appdata\\local\\programs\\python\\python38\\lib\\optparse.py',
   'PYMODULE'),
  ('http.server',
   'c:\\users\\nicolas\\appdata\\local\\programs\\python\\python38\\lib\\http\\server.py',
   'PYMODULE'),
  ('http',
   'c:\\users\\nicolas\\appdata\\local\\programs\\python\\python38\\lib\\http\\__init__.py',
   'PYMODULE'),
  ('socketserver',
   'c:\\users\\nicolas\\appdata\\local\\programs\\python\\python38\\lib\\socketserver.py',
   'PYMODULE'),
  ('mimetypes',
   'c:\\users\\nicolas\\appdata\\local\\programs\\python\\python38\\lib\\mimetypes.py',
   'PYMODULE'),
  ('http.client',
   'c:\\users\\nicolas\\appdata\\local\\programs\\python\\python38\\lib\\http\\client.py',
   'PYMODULE'),
  ('html',
   'c:\\users\\nicolas\\appdata\\local\\programs\\python\\python38\\lib\\html\\__init__.py',
   'PYMODULE'),
  ('html.entities',
   'c:\\users\\nicolas\\appdata\\local\\programs\\python\\python38\\lib\\html\\entities.py',
   'PYMODULE'),
  ('pydoc_data.topics',
   'c:\\users\\nicolas\\appdata\\local\\programs\\python\\python38\\lib\\pydoc_data\\topics.py',
   'PYMODULE'),
  ('pydoc_data',
   'c:\\users\\nicolas\\appdata\\local\\programs\\python\\python38\\lib\\pydoc_data\\__init__.py',
   'PYMODULE'),
  ('tty',
   'c:\\users\\nicolas\\appdata\\local\\programs\\python\\python38\\lib\\tty.py',
   'PYMODULE'),
  ('tempfile',
   'c:\\users\\nicolas\\appdata\\local\\programs\\python\\python38\\lib\\tempfile.py',
   'PYMODULE'),
  ('sysconfig',
   'c:\\users\\nicolas\\appdata\\local\\programs\\python\\python38\\lib\\sysconfig.py',
   'PYMODULE'),
  ('_osx_support',
   'c:\\users\\nicolas\\appdata\\local\\programs\\python\\python38\\lib\\_osx_support.py',
   'PYMODULE'),
  ('distutils.log',
   'c:\\users\\nicolas\\appdata\\local\\programs\\python\\python38\\lib\\distutils\\log.py',
   'PYMODULE'),
  ('distutils',
   'c:\\users\\nicolas\\appdata\\local\\programs\\python\\python38\\lib\\distutils\\__init__.py',
   'PYMODULE'),
  ('distutils.ccompiler',
   'c:\\users\\nicolas\\appdata\\local\\programs\\python\\python38\\lib\\distutils\\ccompiler.py',
   'PYMODULE'),
  ('distutils.fancy_getopt',
   'c:\\users\\nicolas\\appdata\\local\\programs\\python\\python38\\lib\\distutils\\fancy_getopt.py',
   'PYMODULE'),
  ('distutils.debug',
   'c:\\users\\nicolas\\appdata\\local\\programs\\python\\python38\\lib\\distutils\\debug.py',
   'PYMODULE'),
  ('distutils.util',
   'c:\\users\\nicolas\\appdata\\local\\programs\\python\\python38\\lib\\distutils\\util.py',
   'PYMODULE'),
  ('distutils.filelist',
   'c:\\users\\nicolas\\appdata\\local\\programs\\python\\python38\\lib\\distutils\\filelist.py',
   'PYMODULE'),
  ('lib2to3.refactor',
   'c:\\users\\nicolas\\appdata\\local\\programs\\python\\python38\\lib\\lib2to3\\refactor.py',
   'PYMODULE'),
  ('multiprocessing',
   'c:\\users\\nicolas\\appdata\\local\\programs\\python\\python38\\lib\\multiprocessing\\__init__.py',
   'PYMODULE'),
  ('multiprocessing.context',
   'c:\\users\\nicolas\\appdata\\local\\programs\\python\\python38\\lib\\multiprocessing\\context.py',
   'PYMODULE'),
  ('multiprocessing.popen_spawn_win32',
   'c:\\users\\nicolas\\appdata\\local\\programs\\python\\python38\\lib\\multiprocessing\\popen_spawn_win32.py',
   'PYMODULE'),
  ('multiprocessing.popen_forkserver',
   'c:\\users\\nicolas\\appdata\\local\\programs\\python\\python38\\lib\\multiprocessing\\popen_forkserver.py',
   'PYMODULE'),
  ('multiprocessing.popen_spawn_posix',
   'c:\\users\\nicolas\\appdata\\local\\programs\\python\\python38\\lib\\multiprocessing\\popen_spawn_posix.py',
   'PYMODULE'),
  ('multiprocessing.popen_fork',
   'c:\\users\\nicolas\\appdata\\local\\programs\\python\\python38\\lib\\multiprocessing\\popen_fork.py',
   'PYMODULE'),
  ('multiprocessing.sharedctypes',
   'c:\\users\\nicolas\\appdata\\local\\programs\\python\\python38\\lib\\multiprocessing\\sharedctypes.py',
   'PYMODULE'),
  ('multiprocessing.heap',
   'c:\\users\\nicolas\\appdata\\local\\programs\\python\\python38\\lib\\multiprocessing\\heap.py',
   'PYMODULE'),
  ('ctypes',
   'c:\\users\\nicolas\\appdata\\local\\programs\\python\\python38\\lib\\ctypes\\__init__.py',
   'PYMODULE'),
  ('ctypes._endian',
   'c:\\users\\nicolas\\appdata\\local\\programs\\python\\python38\\lib\\ctypes\\_endian.py',
   'PYMODULE'),
  ('multiprocessing.queues',
   'c:\\users\\nicolas\\appdata\\local\\programs\\python\\python38\\lib\\multiprocessing\\queues.py',
   'PYMODULE'),
  ('multiprocessing.synchronize',
   'c:\\users\\nicolas\\appdata\\local\\programs\\python\\python38\\lib\\multiprocessing\\synchronize.py',
   'PYMODULE'),
  ('multiprocessing.managers',
   'c:\\users\\nicolas\\appdata\\local\\programs\\python\\python38\\lib\\multiprocessing\\managers.py',
   'PYMODULE'),
  ('multiprocessing.shared_memory',
   'c:\\users\\nicolas\\appdata\\local\\programs\\python\\python38\\lib\\multiprocessing\\shared_memory.py',
   'PYMODULE'),
  ('secrets',
   'c:\\users\\nicolas\\appdata\\local\\programs\\python\\python38\\lib\\secrets.py',
   'PYMODULE'),
  ('hmac',
   'c:\\users\\nicolas\\appdata\\local\\programs\\python\\python38\\lib\\hmac.py',
   'PYMODULE'),
  ('multiprocessing.pool',
   'c:\\users\\nicolas\\appdata\\local\\programs\\python\\python38\\lib\\multiprocessing\\pool.py',
   'PYMODULE'),
  ('multiprocessing.dummy',
   'c:\\users\\nicolas\\appdata\\local\\programs\\python\\python38\\lib\\multiprocessing\\dummy\\__init__.py',
   'PYMODULE'),
  ('multiprocessing.dummy.connection',
   'c:\\users\\nicolas\\appdata\\local\\programs\\python\\python38\\lib\\multiprocessing\\dummy\\connection.py',
   'PYMODULE'),
  ('multiprocessing.reduction',
   'c:\\users\\nicolas\\appdata\\local\\programs\\python\\python38\\lib\\multiprocessing\\reduction.py',
   'PYMODULE'),
  ('multiprocessing.forkserver',
   'c:\\users\\nicolas\\appdata\\local\\programs\\python\\python38\\lib\\multiprocessing\\forkserver.py',
   'PYMODULE'),
  ('multiprocessing.spawn',
   'c:\\users\\nicolas\\appdata\\local\\programs\\python\\python38\\lib\\multiprocessing\\spawn.py',
   'PYMODULE'),
  ('multiprocessing.resource_tracker',
   'c:\\users\\nicolas\\appdata\\local\\programs\\python\\python38\\lib\\multiprocessing\\resource_tracker.py',
   'PYMODULE'),
  ('multiprocessing.connection',
   'c:\\users\\nicolas\\appdata\\local\\programs\\python\\python38\\lib\\multiprocessing\\connection.py',
   'PYMODULE'),
  ('xmlrpc.client',
   'c:\\users\\nicolas\\appdata\\local\\programs\\python\\python38\\lib\\xmlrpc\\client.py',
   'PYMODULE'),
  ('xmlrpc',
   'c:\\users\\nicolas\\appdata\\local\\programs\\python\\python38\\lib\\xmlrpc\\__init__.py',
   'PYMODULE'),
  ('gzip',
   'c:\\users\\nicolas\\appdata\\local\\programs\\python\\python38\\lib\\gzip.py',
   'PYMODULE'),
  ('_compression',
   'c:\\users\\nicolas\\appdata\\local\\programs\\python\\python38\\lib\\_compression.py',
   'PYMODULE'),
  ('xml.parsers.expat',
   'c:\\users\\nicolas\\appdata\\local\\programs\\python\\python38\\lib\\xml\\parsers\\expat.py',
   'PYMODULE'),
  ('xml.parsers',
   'c:\\users\\nicolas\\appdata\\local\\programs\\python\\python38\\lib\\xml\\parsers\\__init__.py',
   'PYMODULE'),
  ('xml',
   'c:\\users\\nicolas\\appdata\\local\\programs\\python\\python38\\lib\\xml\\__init__.py',
   'PYMODULE'),
  ('xml.sax.expatreader',
   'c:\\users\\nicolas\\appdata\\local\\programs\\python\\python38\\lib\\xml\\sax\\expatreader.py',
   'PYMODULE'),
  ('xml.sax.saxutils',
   'c:\\users\\nicolas\\appdata\\local\\programs\\python\\python38\\lib\\xml\\sax\\saxutils.py',
   'PYMODULE'),
  ('urllib.request',
   'c:\\users\\nicolas\\appdata\\local\\programs\\python\\python38\\lib\\urllib\\request.py',
   'PYMODULE'),
  ('getpass',
   'c:\\users\\nicolas\\appdata\\local\\programs\\python\\python38\\lib\\getpass.py',
   'PYMODULE'),
  ('nturl2path',
   'c:\\users\\nicolas\\appdata\\local\\programs\\python\\python38\\lib\\nturl2path.py',
   'PYMODULE'),
  ('ftplib',
   'c:\\users\\nicolas\\appdata\\local\\programs\\python\\python38\\lib\\ftplib.py',
   'PYMODULE'),
  ('netrc',
   'c:\\users\\nicolas\\appdata\\local\\programs\\python\\python38\\lib\\netrc.py',
   'PYMODULE'),
  ('http.cookiejar',
   'c:\\users\\nicolas\\appdata\\local\\programs\\python\\python38\\lib\\http\\cookiejar.py',
   'PYMODULE'),
  ('urllib.response',
   'c:\\users\\nicolas\\appdata\\local\\programs\\python\\python38\\lib\\urllib\\response.py',
   'PYMODULE'),
  ('urllib.error',
   'c:\\users\\nicolas\\appdata\\local\\programs\\python\\python38\\lib\\urllib\\error.py',
   'PYMODULE'),
  ('xml.sax',
   'c:\\users\\nicolas\\appdata\\local\\programs\\python\\python38\\lib\\xml\\sax\\__init__.py',
   'PYMODULE'),
  ('xml.sax.handler',
   'c:\\users\\nicolas\\appdata\\local\\programs\\python\\python38\\lib\\xml\\sax\\handler.py',
   'PYMODULE'),
  ('xml.sax._exceptions',
   'c:\\users\\nicolas\\appdata\\local\\programs\\python\\python38\\lib\\xml\\sax\\_exceptions.py',
   'PYMODULE'),
  ('xml.sax.xmlreader',
   'c:\\users\\nicolas\\appdata\\local\\programs\\python\\python38\\lib\\xml\\sax\\xmlreader.py',
   'PYMODULE'),
  ('decimal',
   'c:\\users\\nicolas\\appdata\\local\\programs\\python\\python38\\lib\\decimal.py',
   'PYMODULE'),
  ('_pydecimal',
   'c:\\users\\nicolas\\appdata\\local\\programs\\python\\python38\\lib\\_pydecimal.py',
   'PYMODULE'),
  ('contextvars',
   'c:\\users\\nicolas\\appdata\\local\\programs\\python\\python38\\lib\\contextvars.py',
   'PYMODULE'),
  ('numbers',
   'c:\\users\\nicolas\\appdata\\local\\programs\\python\\python38\\lib\\numbers.py',
   'PYMODULE'),
  ('multiprocessing.resource_sharer',
   'c:\\users\\nicolas\\appdata\\local\\programs\\python\\python38\\lib\\multiprocessing\\resource_sharer.py',
   'PYMODULE'),
  ('multiprocessing.util',
   'c:\\users\\nicolas\\appdata\\local\\programs\\python\\python38\\lib\\multiprocessing\\util.py',
   'PYMODULE'),
  ('test.support',
   'c:\\users\\nicolas\\appdata\\local\\programs\\python\\python38\\lib\\test\\support\\__init__.py',
   'PYMODULE'),
  ('tracemalloc',
   'c:\\users\\nicolas\\appdata\\local\\programs\\python\\python38\\lib\\tracemalloc.py',
   'PYMODULE'),
  ('tkinter',
   'c:\\users\\nicolas\\appdata\\local\\programs\\python\\python38\\lib\\tkinter\\__init__.py',
   'PYMODULE'),
  ('tkinter.constants',
   'c:\\users\\nicolas\\appdata\\local\\programs\\python\\python38\\lib\\tkinter\\constants.py',
   'PYMODULE'),
  ('ctypes.util',
   'c:\\users\\nicolas\\appdata\\local\\programs\\python\\python38\\lib\\ctypes\\util.py',
   'PYMODULE'),
  ('ctypes._aix',
   'c:\\users\\nicolas\\appdata\\local\\programs\\python\\python38\\lib\\ctypes\\_aix.py',
   'PYMODULE'),
  ('ctypes.macholib.dyld',
   'c:\\users\\nicolas\\appdata\\local\\programs\\python\\python38\\lib\\ctypes\\macholib\\dyld.py',
   'PYMODULE'),
  ('ctypes.macholib',
   'c:\\users\\nicolas\\appdata\\local\\programs\\python\\python38\\lib\\ctypes\\macholib\\__init__.py',
   'PYMODULE'),
  ('ctypes.macholib.dylib',
   'c:\\users\\nicolas\\appdata\\local\\programs\\python\\python38\\lib\\ctypes\\macholib\\dylib.py',
   'PYMODULE'),
  ('ctypes.macholib.framework',
   'c:\\users\\nicolas\\appdata\\local\\programs\\python\\python38\\lib\\ctypes\\macholib\\framework.py',
   'PYMODULE'),
  ('ctypes.wintypes',
   'c:\\users\\nicolas\\appdata\\local\\programs\\python\\python38\\lib\\ctypes\\wintypes.py',
   'PYMODULE'),
  ('test.support.testresult',
   'c:\\users\\nicolas\\appdata\\local\\programs\\python\\python38\\lib\\test\\support\\testresult.py',
   'PYMODULE'),
  ('xml.etree.ElementTree',
   'c:\\users\\nicolas\\appdata\\local\\programs\\python\\python38\\lib\\xml\\etree\\ElementTree.py',
   'PYMODULE'),
  ('xml.etree.cElementTree',
   'c:\\users\\nicolas\\appdata\\local\\programs\\python\\python38\\lib\\xml\\etree\\cElementTree.py',
   'PYMODULE'),
  ('xml.etree.ElementInclude',
   'c:\\users\\nicolas\\appdata\\local\\programs\\python\\python38\\lib\\xml\\etree\\ElementInclude.py',
   'PYMODULE'),
  ('xml.etree.ElementPath',
   'c:\\users\\nicolas\\appdata\\local\\programs\\python\\python38\\lib\\xml\\etree\\ElementPath.py',
   'PYMODULE'),
  ('xml.etree',
   'c:\\users\\nicolas\\appdata\\local\\programs\\python\\python38\\lib\\xml\\etree\\__init__.py',
   'PYMODULE'),
  ('nntplib',
   'c:\\users\\nicolas\\appdata\\local\\programs\\python\\python38\\lib\\nntplib.py',
   'PYMODULE'),
  ('logging.handlers',
   'c:\\users\\nicolas\\appdata\\local\\programs\\python\\python38\\lib\\logging\\handlers.py',
   'PYMODULE'),
  ('smtplib',
   'c:\\users\\nicolas\\appdata\\local\\programs\\python\\python38\\lib\\smtplib.py',
   'PYMODULE'),
  ('email.base64mime',
   'c:\\users\\nicolas\\appdata\\local\\programs\\python\\python38\\lib\\email\\base64mime.py',
   'PYMODULE'),
  ('asyncio.events',
   'c:\\users\\nicolas\\appdata\\local\\programs\\python\\python38\\lib\\asyncio\\events.py',
   'PYMODULE'),
  ('asyncio.exceptions',
   'c:\\users\\nicolas\\appdata\\local\\programs\\python\\python38\\lib\\asyncio\\exceptions.py',
   'PYMODULE'),
  ('asyncio.format_helpers',
   'c:\\users\\nicolas\\appdata\\local\\programs\\python\\python38\\lib\\asyncio\\format_helpers.py',
   'PYMODULE'),
  ('asyncio.constants',
   'c:\\users\\nicolas\\appdata\\local\\programs\\python\\python38\\lib\\asyncio\\constants.py',
   'PYMODULE'),
  ('test',
   'c:\\users\\nicolas\\appdata\\local\\programs\\python\\python38\\lib\\test\\__init__.py',
   'PYMODULE'),
  ('multiprocessing.process',
   'c:\\users\\nicolas\\appdata\\local\\programs\\python\\python38\\lib\\multiprocessing\\process.py',
   'PYMODULE'),
  ('lib2to3.btm_matcher',
   'c:\\users\\nicolas\\appdata\\local\\programs\\python\\python38\\lib\\lib2to3\\btm_matcher.py',
   'PYMODULE'),
  ('lib2to3.btm_utils',
   'c:\\users\\nicolas\\appdata\\local\\programs\\python\\python38\\lib\\lib2to3\\btm_utils.py',
   'PYMODULE'),
  ('lib2to3.pgen2.grammar',
   'c:\\users\\nicolas\\appdata\\local\\programs\\python\\python38\\lib\\lib2to3\\pgen2\\grammar.py',
   'PYMODULE'),
  ('lib2to3.pygram',
   'c:\\users\\nicolas\\appdata\\local\\programs\\python\\python38\\lib\\lib2to3\\pygram.py',
   'PYMODULE'),
  ('lib2to3.pytree',
   'c:\\users\\nicolas\\appdata\\local\\programs\\python\\python38\\lib\\lib2to3\\pytree.py',
   'PYMODULE'),
  ('lib2to3',
   'c:\\users\\nicolas\\appdata\\local\\programs\\python\\python38\\lib\\lib2to3\\__init__.py',
   'PYMODULE'),
  ('lib2to3.patcomp',
   'c:\\users\\nicolas\\appdata\\local\\programs\\python\\python38\\lib\\lib2to3\\patcomp.py',
   'PYMODULE'),
  ('lib2to3.pgen2.parse',
   'c:\\users\\nicolas\\appdata\\local\\programs\\python\\python38\\lib\\lib2to3\\pgen2\\parse.py',
   'PYMODULE'),
  ('lib2to3.pgen2.literals',
   'c:\\users\\nicolas\\appdata\\local\\programs\\python\\python38\\lib\\lib2to3\\pgen2\\literals.py',
   'PYMODULE'),
  ('lib2to3.fixer_util',
   'c:\\users\\nicolas\\appdata\\local\\programs\\python\\python38\\lib\\lib2to3\\fixer_util.py',
   'PYMODULE'),
  ('lib2to3.pgen2.token',
   'c:\\users\\nicolas\\appdata\\local\\programs\\python\\python38\\lib\\lib2to3\\pgen2\\token.py',
   'PYMODULE'),
  ('lib2to3.pgen2.tokenize',
   'c:\\users\\nicolas\\appdata\\local\\programs\\python\\python38\\lib\\lib2to3\\pgen2\\tokenize.py',
   'PYMODULE'),
  ('lib2to3.pgen2.driver',
   'c:\\users\\nicolas\\appdata\\local\\programs\\python\\python38\\lib\\lib2to3\\pgen2\\driver.py',
   'PYMODULE'),
  ('lib2to3.pgen2.pgen',
   'c:\\users\\nicolas\\appdata\\local\\programs\\python\\python38\\lib\\lib2to3\\pgen2\\pgen.py',
   'PYMODULE'),
  ('lib2to3.pgen2',
   'c:\\users\\nicolas\\appdata\\local\\programs\\python\\python38\\lib\\lib2to3\\pgen2\\__init__.py',
   'PYMODULE'),
  ('distutils.dep_util',
   'c:\\users\\nicolas\\appdata\\local\\programs\\python\\python38\\lib\\distutils\\dep_util.py',
   'PYMODULE'),
  ('distutils.dir_util',
   'c:\\users\\nicolas\\appdata\\local\\programs\\python\\python38\\lib\\distutils\\dir_util.py',
   'PYMODULE'),
  ('distutils.file_util',
   'c:\\users\\nicolas\\appdata\\local\\programs\\python\\python38\\lib\\distutils\\file_util.py',
   'PYMODULE'),
  ('distutils.spawn',
   'c:\\users\\nicolas\\appdata\\local\\programs\\python\\python38\\lib\\distutils\\spawn.py',
   'PYMODULE'),
  ('distutils.errors',
   'c:\\users\\nicolas\\appdata\\local\\programs\\python\\python38\\lib\\distutils\\errors.py',
   'PYMODULE'),
  ('distutils.sysconfig',
   'c:\\users\\nicolas\\appdata\\local\\programs\\python\\python38\\lib\\distutils\\sysconfig.py',
   'PYMODULE'),
  ('distutils.text_file',
   'c:\\users\\nicolas\\appdata\\local\\programs\\python\\python38\\lib\\distutils\\text_file.py',
   'PYMODULE'),
  ('platform',
   'c:\\users\\nicolas\\appdata\\local\\programs\\python\\python38\\lib\\platform.py',
   'PYMODULE'),
  ('plistlib',
   'c:\\users\\nicolas\\appdata\\local\\programs\\python\\python38\\lib\\plistlib.py',
   'PYMODULE'),
  ('pkgutil',
   'c:\\users\\nicolas\\appdata\\local\\programs\\python\\python38\\lib\\pkgutil.py',
   'PYMODULE'),
  ('zipimport',
   'c:\\users\\nicolas\\appdata\\local\\programs\\python\\python38\\lib\\zipimport.py',
   'PYMODULE'),
  ('runpy',
   'c:\\users\\nicolas\\appdata\\local\\programs\\python\\python38\\lib\\runpy.py',
   'PYMODULE'),
  ('shlex',
   'c:\\users\\nicolas\\appdata\\local\\programs\\python\\python38\\lib\\shlex.py',
   'PYMODULE'),
  ('glob',
   'c:\\users\\nicolas\\appdata\\local\\programs\\python\\python38\\lib\\glob.py',
   'PYMODULE'),
  ('code',
   'c:\\users\\nicolas\\appdata\\local\\programs\\python\\python38\\lib\\code.py',
   'PYMODULE'),
  ('codeop',
   'c:\\users\\nicolas\\appdata\\local\\programs\\python\\python38\\lib\\codeop.py',
   'PYMODULE'),
  ('dis',
   'c:\\users\\nicolas\\appdata\\local\\programs\\python\\python38\\lib\\dis.py',
   'PYMODULE'),
  ('opcode',
   'c:\\users\\nicolas\\appdata\\local\\programs\\python\\python38\\lib\\opcode.py',
   'PYMODULE'),
  ('bdb',
   'c:\\users\\nicolas\\appdata\\local\\programs\\python\\python38\\lib\\bdb.py',
   'PYMODULE'),
  ('cmd',
   'c:\\users\\nicolas\\appdata\\local\\programs\\python\\python38\\lib\\cmd.py',
   'PYMODULE'),
  ('inspect',
   'c:\\users\\nicolas\\appdata\\local\\programs\\python\\python38\\lib\\inspect.py',
   'PYMODULE'),
  ('ast',
   'c:\\users\\nicolas\\appdata\\local\\programs\\python\\python38\\lib\\ast.py',
   'PYMODULE'),
  ('token',
   'c:\\users\\nicolas\\appdata\\local\\programs\\python\\python38\\lib\\token.py',
   'PYMODULE'),
  ('difflib',
   'c:\\users\\nicolas\\appdata\\local\\programs\\python\\python38\\lib\\difflib.py',
   'PYMODULE'),
  ('__future__',
   'c:\\users\\nicolas\\appdata\\local\\programs\\python\\python38\\lib\\__future__.py',
   'PYMODULE'),
  ('_compat_pickle',
   'c:\\users\\nicolas\\appdata\\local\\programs\\python\\python38\\lib\\_compat_pickle.py',
   'PYMODULE'),
  ('bisect',
   'c:\\users\\nicolas\\appdata\\local\\programs\\python\\python38\\lib\\bisect.py',
   'PYMODULE'),
  ('email.feedparser',
   'c:\\users\\nicolas\\appdata\\local\\programs\\python\\python38\\lib\\email\\feedparser.py',
   'PYMODULE'),
  ('email._header_value_parser',
   'c:\\users\\nicolas\\appdata\\local\\programs\\python\\python38\\lib\\email\\_header_value_parser.py',
   'PYMODULE'),
  ('email.header',
   'c:\\users\\nicolas\\appdata\\local\\programs\\python\\python38\\lib\\email\\header.py',
   'PYMODULE'),
  ('email.charset',
   'c:\\users\\nicolas\\appdata\\local\\programs\\python\\python38\\lib\\email\\charset.py',
   'PYMODULE'),
  ('email.encoders',
   'c:\\users\\nicolas\\appdata\\local\\programs\\python\\python38\\lib\\email\\encoders.py',
   'PYMODULE'),
  ('email.errors',
   'c:\\users\\nicolas\\appdata\\local\\programs\\python\\python38\\lib\\email\\errors.py',
   'PYMODULE'),
  ('csv',
   'c:\\users\\nicolas\\appdata\\local\\programs\\python\\python38\\lib\\csv.py',
   'PYMODULE'),
  ('tokenize',
   'c:\\users\\nicolas\\appdata\\local\\programs\\python\\python38\\lib\\tokenize.py',
   'PYMODULE'),
  ('importlib.util',
   'c:\\users\\nicolas\\appdata\\local\\programs\\python\\python38\\lib\\importlib\\util.py',
   'PYMODULE'),
  ('tarfile',
   'c:\\users\\nicolas\\appdata\\local\\programs\\python\\python38\\lib\\tarfile.py',
   'PYMODULE'),
  ('lzma',
   'c:\\users\\nicolas\\appdata\\local\\programs\\python\\python38\\lib\\lzma.py',
   'PYMODULE'),
  ('bz2',
   'c:\\users\\nicolas\\appdata\\local\\programs\\python\\python38\\lib\\bz2.py',
   'PYMODULE'),
  ('fnmatch',
   'c:\\users\\nicolas\\appdata\\local\\programs\\python\\python38\\lib\\fnmatch.py',
   'PYMODULE'),
  ('base64',
   'c:\\users\\nicolas\\appdata\\local\\programs\\python\\python38\\lib\\base64.py',
   'PYMODULE'),
  ('socket',
   'c:\\users\\nicolas\\appdata\\local\\programs\\python\\python38\\lib\\socket.py',
   'PYMODULE'),
  ('stringprep',
   'c:\\users\\nicolas\\appdata\\local\\programs\\python\\python38\\lib\\stringprep.py',
   'PYMODULE'),
  ('typing',
   'c:\\users\\nicolas\\appdata\\local\\programs\\python\\python38\\lib\\typing.py',
   'PYMODULE'),
  ('_py_abc',
   'c:\\users\\nicolas\\appdata\\local\\programs\\python\\python38\\lib\\_py_abc.py',
   'PYMODULE'),
  ('mails', 'C:\\python\\pythonNS_library\\mails.py', 'PYMODULE'),
  ('email.mime.text',
   'c:\\users\\nicolas\\appdata\\local\\programs\\python\\python38\\lib\\email\\mime\\text.py',
   'PYMODULE'),
  ('email.mime',
   'c:\\users\\nicolas\\appdata\\local\\programs\\python\\python38\\lib\\email\\mime\\__init__.py',
   'PYMODULE'),
  ('email.mime.nonmultipart',
   'c:\\users\\nicolas\\appdata\\local\\programs\\python\\python38\\lib\\email\\mime\\nonmultipart.py',
   'PYMODULE'),
  ('email.mime.base',
   'c:\\users\\nicolas\\appdata\\local\\programs\\python\\python38\\lib\\email\\mime\\base.py',
   'PYMODULE'),
  ('queue',
   'c:\\users\\nicolas\\appdata\\local\\programs\\python\\python38\\lib\\queue.py',
   'PYMODULE'),
  ('configparser',
   'c:\\users\\nicolas\\appdata\\local\\programs\\python\\python38\\lib\\configparser.py',
   'PYMODULE'),
  ('_strptime',
   'c:\\users\\nicolas\\appdata\\local\\programs\\python\\python38\\lib\\_strptime.py',
   'PYMODULE'),
  ('datetime',
   'c:\\users\\nicolas\\appdata\\local\\programs\\python\\python38\\lib\\datetime.py',
   'PYMODULE'),
  ('asyncio',
   'c:\\users\\nicolas\\appdata\\local\\programs\\python\\python38\\lib\\asyncio\\__init__.py',
   'PYMODULE'),
  ('asyncio.unix_events',
   'c:\\users\\nicolas\\appdata\\local\\programs\\python\\python38\\lib\\asyncio\\unix_events.py',
   'PYMODULE'),
  ('asyncio.log',
   'c:\\users\\nicolas\\appdata\\local\\programs\\python\\python38\\lib\\asyncio\\log.py',
   'PYMODULE'),
  ('asyncio.windows_events',
   'c:\\users\\nicolas\\appdata\\local\\programs\\python\\python38\\lib\\asyncio\\windows_events.py',
   'PYMODULE'),
  ('asyncio.windows_utils',
   'c:\\users\\nicolas\\appdata\\local\\programs\\python\\python38\\lib\\asyncio\\windows_utils.py',
   'PYMODULE'),
  ('asyncio.selector_events',
   'c:\\users\\nicolas\\appdata\\local\\programs\\python\\python38\\lib\\asyncio\\selector_events.py',
   'PYMODULE'),
  ('asyncio.proactor_events',
   'c:\\users\\nicolas\\appdata\\local\\programs\\python\\python38\\lib\\asyncio\\proactor_events.py',
   'PYMODULE'),
  ('asyncio.base_subprocess',
   'c:\\users\\nicolas\\appdata\\local\\programs\\python\\python38\\lib\\asyncio\\base_subprocess.py',
   'PYMODULE'),
  ('asyncio.subprocess',
   'c:\\users\\nicolas\\appdata\\local\\programs\\python\\python38\\lib\\asyncio\\subprocess.py',
   'PYMODULE'),
  ('asyncio.streams',
   'c:\\users\\nicolas\\appdata\\local\\programs\\python\\python38\\lib\\asyncio\\streams.py',
   'PYMODULE'),
  ('asyncio.queues',
   'c:\\users\\nicolas\\appdata\\local\\programs\\python\\python38\\lib\\asyncio\\queues.py',
   'PYMODULE'),
  ('asyncio.runners',
   'c:\\users\\nicolas\\appdata\\local\\programs\\python\\python38\\lib\\asyncio\\runners.py',
   'PYMODULE'),
  ('asyncio.trsock',
   'c:\\users\\nicolas\\appdata\\local\\programs\\python\\python38\\lib\\asyncio\\trsock.py',
   'PYMODULE'),
  ('asyncio.staggered',
   'c:\\users\\nicolas\\appdata\\local\\programs\\python\\python38\\lib\\asyncio\\staggered.py',
   'PYMODULE'),
  ('asyncio.tasks',
   'c:\\users\\nicolas\\appdata\\local\\programs\\python\\python38\\lib\\asyncio\\tasks.py',
   'PYMODULE'),
  ('concurrent.futures',
   'c:\\users\\nicolas\\appdata\\local\\programs\\python\\python38\\lib\\concurrent\\futures\\__init__.py',
   'PYMODULE'),
  ('concurrent.futures.thread',
   'c:\\users\\nicolas\\appdata\\local\\programs\\python\\python38\\lib\\concurrent\\futures\\thread.py',
   'PYMODULE'),
  ('concurrent.futures.process',
   'c:\\users\\nicolas\\appdata\\local\\programs\\python\\python38\\lib\\concurrent\\futures\\process.py',
   'PYMODULE'),
  ('concurrent.futures._base',
   'c:\\users\\nicolas\\appdata\\local\\programs\\python\\python38\\lib\\concurrent\\futures\\_base.py',
   'PYMODULE'),
  ('concurrent',
   'c:\\users\\nicolas\\appdata\\local\\programs\\python\\python38\\lib\\concurrent\\__init__.py',
   'PYMODULE'),
  ('asyncio.base_tasks',
   'c:\\users\\nicolas\\appdata\\local\\programs\\python\\python38\\lib\\asyncio\\base_tasks.py',
   'PYMODULE'),
  ('asyncio.locks',
   'c:\\users\\nicolas\\appdata\\local\\programs\\python\\python38\\lib\\asyncio\\locks.py',
   'PYMODULE'),
  ('asyncio.sslproto',
   'c:\\users\\nicolas\\appdata\\local\\programs\\python\\python38\\lib\\asyncio\\sslproto.py',
   'PYMODULE'),
  ('asyncio.transports',
   'c:\\users\\nicolas\\appdata\\local\\programs\\python\\python38\\lib\\asyncio\\transports.py',
   'PYMODULE'),
  ('asyncio.base_events',
   'c:\\users\\nicolas\\appdata\\local\\programs\\python\\python38\\lib\\asyncio\\base_events.py',
   'PYMODULE'),
  ('asyncio.protocols',
   'c:\\users\\nicolas\\appdata\\local\\programs\\python\\python38\\lib\\asyncio\\protocols.py',
   'PYMODULE'),
  ('asyncio.futures',
   'c:\\users\\nicolas\\appdata\\local\\programs\\python\\python38\\lib\\asyncio\\futures.py',
   'PYMODULE'),
  ('asyncio.coroutines',
   'c:\\users\\nicolas\\appdata\\local\\programs\\python\\python38\\lib\\asyncio\\coroutines.py',
   'PYMODULE'),
  ('asyncio.base_futures',
   'c:\\users\\nicolas\\appdata\\local\\programs\\python\\python38\\lib\\asyncio\\base_futures.py',
   'PYMODULE'),
  ('config_parser_init',
   'C:\\python\\pythonNS_library\\config_parser_init.py',
   'PYMODULE'),
  ('printer', 'C:\\python\\pythonNS_library\\printer.py', 'PYMODULE'),
  ('json',
   'c:\\users\\nicolas\\appdata\\local\\programs\\python\\python38\\lib\\json\\__init__.py',
   'PYMODULE'),
  ('json.encoder',
   'c:\\users\\nicolas\\appdata\\local\\programs\\python\\python38\\lib\\json\\encoder.py',
   'PYMODULE'),
  ('json.decoder',
   'c:\\users\\nicolas\\appdata\\local\\programs\\python\\python38\\lib\\json\\decoder.py',
   'PYMODULE'),
  ('json.scanner',
   'c:\\users\\nicolas\\appdata\\local\\programs\\python\\python38\\lib\\json\\scanner.py',
   'PYMODULE'),
  ('requests',
   'c:\\users\\nicolas\\appdata\\local\\programs\\python\\python38\\lib\\site-packages\\requests\\__init__.py',
   'PYMODULE'),
  ('requests.status_codes',
   'c:\\users\\nicolas\\appdata\\local\\programs\\python\\python38\\lib\\site-packages\\requests\\status_codes.py',
   'PYMODULE'),
  ('requests.structures',
   'c:\\users\\nicolas\\appdata\\local\\programs\\python\\python38\\lib\\site-packages\\requests\\structures.py',
   'PYMODULE'),
  ('requests.compat',
   'c:\\users\\nicolas\\appdata\\local\\programs\\python\\python38\\lib\\site-packages\\requests\\compat.py',
   'PYMODULE'),
  ('http.cookies',
   'c:\\users\\nicolas\\appdata\\local\\programs\\python\\python38\\lib\\http\\cookies.py',
   'PYMODULE'),
  ('requests.api',
   'c:\\users\\nicolas\\appdata\\local\\programs\\python\\python38\\lib\\site-packages\\requests\\api.py',
   'PYMODULE'),
  ('requests.sessions',
   'c:\\users\\nicolas\\appdata\\local\\programs\\python\\python38\\lib\\site-packages\\requests\\sessions.py',
   'PYMODULE'),
  ('requests.adapters',
   'c:\\users\\nicolas\\appdata\\local\\programs\\python\\python38\\lib\\site-packages\\requests\\adapters.py',
   'PYMODULE'),
  ('urllib3.contrib.socks',
   'c:\\users\\nicolas\\appdata\\local\\programs\\python\\python38\\lib\\site-packages\\urllib3\\contrib\\socks.py',
   'PYMODULE'),
  ('urllib3.util.url',
   'c:\\users\\nicolas\\appdata\\local\\programs\\python\\python38\\lib\\site-packages\\urllib3\\util\\url.py',
   'PYMODULE'),
  ('idna',
   'c:\\users\\nicolas\\appdata\\local\\programs\\python\\python38\\lib\\site-packages\\idna\\__init__.py',
   'PYMODULE'),
  ('idna.core',
   'c:\\users\\nicolas\\appdata\\local\\programs\\python\\python38\\lib\\site-packages\\idna\\core.py',
   'PYMODULE'),
  ('idna.uts46data',
   'c:\\users\\nicolas\\appdata\\local\\programs\\python\\python38\\lib\\site-packages\\idna\\uts46data.py',
   'PYMODULE'),
  ('idna.intranges',
   'c:\\users\\nicolas\\appdata\\local\\programs\\python\\python38\\lib\\site-packages\\idna\\intranges.py',
   'PYMODULE'),
  ('idna.idnadata',
   'c:\\users\\nicolas\\appdata\\local\\programs\\python\\python38\\lib\\site-packages\\idna\\idnadata.py',
   'PYMODULE'),
  ('idna.package_data',
   'c:\\users\\nicolas\\appdata\\local\\programs\\python\\python38\\lib\\site-packages\\idna\\package_data.py',
   'PYMODULE'),
  ('urllib3.packages.six',
   'c:\\users\\nicolas\\appdata\\local\\programs\\python\\python38\\lib\\site-packages\\urllib3\\packages\\six.py',
   'PYMODULE'),
  ('urllib3.packages',
   'c:\\users\\nicolas\\appdata\\local\\programs\\python\\python38\\lib\\site-packages\\urllib3\\packages\\__init__.py',
   'PYMODULE'),
  ('urllib3.packages.ssl_match_hostname',
   'c:\\users\\nicolas\\appdata\\local\\programs\\python\\python38\\lib\\site-packages\\urllib3\\packages\\ssl_match_hostname\\__init__.py',
   'PYMODULE'),
  ('urllib3.packages.ssl_match_hostname._implementation',
   'c:\\users\\nicolas\\appdata\\local\\programs\\python\\python38\\lib\\site-packages\\urllib3\\packages\\ssl_match_hostname\\_implementation.py',
   'PYMODULE'),
  ('ipaddress',
   'c:\\users\\nicolas\\appdata\\local\\programs\\python\\python38\\lib\\ipaddress.py',
   'PYMODULE'),
  ('urllib3.connectionpool',
   'c:\\users\\nicolas\\appdata\\local\\programs\\python\\python38\\lib\\site-packages\\urllib3\\connectionpool.py',
   'PYMODULE'),
  ('urllib3.util.queue',
   'c:\\users\\nicolas\\appdata\\local\\programs\\python\\python38\\lib\\site-packages\\urllib3\\util\\queue.py',
   'PYMODULE'),
  ('urllib3.util.timeout',
   'c:\\users\\nicolas\\appdata\\local\\programs\\python\\python38\\lib\\site-packages\\urllib3\\util\\timeout.py',
   'PYMODULE'),
  ('urllib3.util.response',
   'c:\\users\\nicolas\\appdata\\local\\programs\\python\\python38\\lib\\site-packages\\urllib3\\util\\response.py',
   'PYMODULE'),
  ('urllib3.util.request',
   'c:\\users\\nicolas\\appdata\\local\\programs\\python\\python38\\lib\\site-packages\\urllib3\\util\\request.py',
   'PYMODULE'),
  ('urllib3.util.connection',
   'c:\\users\\nicolas\\appdata\\local\\programs\\python\\python38\\lib\\site-packages\\urllib3\\util\\connection.py',
   'PYMODULE'),
  ('urllib3.contrib._appengine_environ',
   'c:\\users\\nicolas\\appdata\\local\\programs\\python\\python38\\lib\\site-packages\\urllib3\\contrib\\_appengine_environ.py',
   'PYMODULE'),
  ('urllib3.util.wait',
   'c:\\users\\nicolas\\appdata\\local\\programs\\python\\python38\\lib\\site-packages\\urllib3\\util\\wait.py',
   'PYMODULE'),
  ('urllib3.request',
   'c:\\users\\nicolas\\appdata\\local\\programs\\python\\python38\\lib\\site-packages\\urllib3\\request.py',
   'PYMODULE'),
  ('urllib3.filepost',
   'c:\\users\\nicolas\\appdata\\local\\programs\\python\\python38\\lib\\site-packages\\urllib3\\filepost.py',
   'PYMODULE'),
  ('urllib3.fields',
   'c:\\users\\nicolas\\appdata\\local\\programs\\python\\python38\\lib\\site-packages\\urllib3\\fields.py',
   'PYMODULE'),
  ('urllib3.connection',
   'c:\\users\\nicolas\\appdata\\local\\programs\\python\\python38\\lib\\site-packages\\urllib3\\connection.py',
   'PYMODULE'),
  ('urllib3._collections',
   'c:\\users\\nicolas\\appdata\\local\\programs\\python\\python38\\lib\\site-packages\\urllib3\\_collections.py',
   'PYMODULE'),
  ('urllib3.util.ssl_',
   'c:\\users\\nicolas\\appdata\\local\\programs\\python\\python38\\lib\\site-packages\\urllib3\\util\\ssl_.py',
   'PYMODULE'),
  ('urllib3.util.retry',
   'c:\\users\\nicolas\\appdata\\local\\programs\\python\\python38\\lib\\site-packages\\urllib3\\util\\retry.py',
   'PYMODULE'),
  ('urllib3.util',
   'c:\\users\\nicolas\\appdata\\local\\programs\\python\\python38\\lib\\site-packages\\urllib3\\util\\__init__.py',
   'PYMODULE'),
  ('urllib3.response',
   'c:\\users\\nicolas\\appdata\\local\\programs\\python\\python38\\lib\\site-packages\\urllib3\\response.py',
   'PYMODULE'),
  ('urllib3.poolmanager',
   'c:\\users\\nicolas\\appdata\\local\\programs\\python\\python38\\lib\\site-packages\\urllib3\\poolmanager.py',
   'PYMODULE'),
  ('requests._internal_utils',
   'c:\\users\\nicolas\\appdata\\local\\programs\\python\\python38\\lib\\site-packages\\requests\\_internal_utils.py',
   'PYMODULE'),
  ('requests.hooks',
   'c:\\users\\nicolas\\appdata\\local\\programs\\python\\python38\\lib\\site-packages\\requests\\hooks.py',
   'PYMODULE'),
  ('requests.cookies',
   'c:\\users\\nicolas\\appdata\\local\\programs\\python\\python38\\lib\\site-packages\\requests\\cookies.py',
   'PYMODULE'),
  ('dummy_threading',
   'c:\\users\\nicolas\\appdata\\local\\programs\\python\\python38\\lib\\dummy_threading.py',
   'PYMODULE'),
  ('_dummy_thread',
   'c:\\users\\nicolas\\appdata\\local\\programs\\python\\python38\\lib\\_dummy_thread.py',
   'PYMODULE'),
  ('requests.auth',
   'c:\\users\\nicolas\\appdata\\local\\programs\\python\\python38\\lib\\site-packages\\requests\\auth.py',
   'PYMODULE'),
  ('requests.models',
   'c:\\users\\nicolas\\appdata\\local\\programs\\python\\python38\\lib\\site-packages\\requests\\models.py',
   'PYMODULE'),
  ('requests.packages',
   'c:\\users\\nicolas\\appdata\\local\\programs\\python\\python38\\lib\\site-packages\\requests\\packages.py',
   'PYMODULE'),
  ('requests.utils',
   'c:\\users\\nicolas\\appdata\\local\\programs\\python\\python38\\lib\\site-packages\\requests\\utils.py',
   'PYMODULE'),
  ('requests.certs',
   'c:\\users\\nicolas\\appdata\\local\\programs\\python\\python38\\lib\\site-packages\\requests\\certs.py',
   'PYMODULE'),
  ('certifi',
   'c:\\users\\nicolas\\appdata\\local\\programs\\python\\python38\\lib\\site-packages\\certifi\\__init__.py',
   'PYMODULE'),
  ('certifi.core',
   'c:\\users\\nicolas\\appdata\\local\\programs\\python\\python38\\lib\\site-packages\\certifi\\core.py',
   'PYMODULE'),
  ('importlib.resources',
   'c:\\users\\nicolas\\appdata\\local\\programs\\python\\python38\\lib\\importlib\\resources.py',
   'PYMODULE'),
  ('requests.__version__',
   'c:\\users\\nicolas\\appdata\\local\\programs\\python\\python38\\lib\\site-packages\\requests\\__version__.py',
   'PYMODULE'),
  ('urllib3.exceptions',
   'c:\\users\\nicolas\\appdata\\local\\programs\\python\\python38\\lib\\site-packages\\urllib3\\exceptions.py',
   'PYMODULE'),
  ('urllib3.contrib.pyopenssl',
   'c:\\users\\nicolas\\appdata\\local\\programs\\python\\python38\\lib\\site-packages\\urllib3\\contrib\\pyopenssl.py',
   'PYMODULE'),
  ('urllib3.packages.backports.makefile',
   'c:\\users\\nicolas\\appdata\\local\\programs\\python\\python38\\lib\\site-packages\\urllib3\\packages\\backports\\makefile.py',
   'PYMODULE'),
  ('urllib3.packages.backports',
   'c:\\users\\nicolas\\appdata\\local\\programs\\python\\python38\\lib\\site-packages\\urllib3\\packages\\backports\\__init__.py',
   'PYMODULE'),
  ('urllib3.contrib',
   'c:\\users\\nicolas\\appdata\\local\\programs\\python\\python38\\lib\\site-packages\\urllib3\\contrib\\__init__.py',
   'PYMODULE'),
  ('requests.exceptions',
   'c:\\users\\nicolas\\appdata\\local\\programs\\python\\python38\\lib\\site-packages\\requests\\exceptions.py',
   'PYMODULE'),
  ('chardet',
   'c:\\users\\nicolas\\appdata\\local\\programs\\python\\python38\\lib\\site-packages\\chardet\\__init__.py',
   'PYMODULE'),
  ('chardet.version',
   'c:\\users\\nicolas\\appdata\\local\\programs\\python\\python38\\lib\\site-packages\\chardet\\version.py',
   'PYMODULE'),
  ('chardet.universaldetector',
   'c:\\users\\nicolas\\appdata\\local\\programs\\python\\python38\\lib\\site-packages\\chardet\\universaldetector.py',
   'PYMODULE'),
  ('chardet.sbcsgroupprober',
   'c:\\users\\nicolas\\appdata\\local\\programs\\python\\python38\\lib\\site-packages\\chardet\\sbcsgroupprober.py',
   'PYMODULE'),
  ('chardet.langturkishmodel',
   'c:\\users\\nicolas\\appdata\\local\\programs\\python\\python38\\lib\\site-packages\\chardet\\langturkishmodel.py',
   'PYMODULE'),
  ('chardet.hebrewprober',
   'c:\\users\\nicolas\\appdata\\local\\programs\\python\\python38\\lib\\site-packages\\chardet\\hebrewprober.py',
   'PYMODULE'),
  ('chardet.charsetprober',
   'c:\\users\\nicolas\\appdata\\local\\programs\\python\\python38\\lib\\site-packages\\chardet\\charsetprober.py',
   'PYMODULE'),
  ('chardet.langhebrewmodel',
   'c:\\users\\nicolas\\appdata\\local\\programs\\python\\python38\\lib\\site-packages\\chardet\\langhebrewmodel.py',
   'PYMODULE'),
  ('chardet.langthaimodel',
   'c:\\users\\nicolas\\appdata\\local\\programs\\python\\python38\\lib\\site-packages\\chardet\\langthaimodel.py',
   'PYMODULE'),
  ('chardet.langbulgarianmodel',
   'c:\\users\\nicolas\\appdata\\local\\programs\\python\\python38\\lib\\site-packages\\chardet\\langbulgarianmodel.py',
   'PYMODULE'),
  ('chardet.langgreekmodel',
   'c:\\users\\nicolas\\appdata\\local\\programs\\python\\python38\\lib\\site-packages\\chardet\\langgreekmodel.py',
   'PYMODULE'),
  ('chardet.langcyrillicmodel',
   'c:\\users\\nicolas\\appdata\\local\\programs\\python\\python38\\lib\\site-packages\\chardet\\langcyrillicmodel.py',
   'PYMODULE'),
  ('chardet.sbcharsetprober',
   'c:\\users\\nicolas\\appdata\\local\\programs\\python\\python38\\lib\\site-packages\\chardet\\sbcharsetprober.py',
   'PYMODULE'),
  ('chardet.mbcsgroupprober',
   'c:\\users\\nicolas\\appdata\\local\\programs\\python\\python38\\lib\\site-packages\\chardet\\mbcsgroupprober.py',
   'PYMODULE'),
  ('chardet.euctwprober',
   'c:\\users\\nicolas\\appdata\\local\\programs\\python\\python38\\lib\\site-packages\\chardet\\euctwprober.py',
   'PYMODULE'),
  ('chardet.mbcssm',
   'c:\\users\\nicolas\\appdata\\local\\programs\\python\\python38\\lib\\site-packages\\chardet\\mbcssm.py',
   'PYMODULE'),
  ('chardet.chardistribution',
   'c:\\users\\nicolas\\appdata\\local\\programs\\python\\python38\\lib\\site-packages\\chardet\\chardistribution.py',
   'PYMODULE'),
  ('chardet.jisfreq',
   'c:\\users\\nicolas\\appdata\\local\\programs\\python\\python38\\lib\\site-packages\\chardet\\jisfreq.py',
   'PYMODULE'),
  ('chardet.big5freq',
   'c:\\users\\nicolas\\appdata\\local\\programs\\python\\python38\\lib\\site-packages\\chardet\\big5freq.py',
   'PYMODULE'),
  ('chardet.gb2312freq',
   'c:\\users\\nicolas\\appdata\\local\\programs\\python\\python38\\lib\\site-packages\\chardet\\gb2312freq.py',
   'PYMODULE'),
  ('chardet.euckrfreq',
   'c:\\users\\nicolas\\appdata\\local\\programs\\python\\python38\\lib\\site-packages\\chardet\\euckrfreq.py',
   'PYMODULE'),
  ('chardet.euctwfreq',
   'c:\\users\\nicolas\\appdata\\local\\programs\\python\\python38\\lib\\site-packages\\chardet\\euctwfreq.py',
   'PYMODULE'),
  ('chardet.codingstatemachine',
   'c:\\users\\nicolas\\appdata\\local\\programs\\python\\python38\\lib\\site-packages\\chardet\\codingstatemachine.py',
   'PYMODULE'),
  ('chardet.mbcharsetprober',
   'c:\\users\\nicolas\\appdata\\local\\programs\\python\\python38\\lib\\site-packages\\chardet\\mbcharsetprober.py',
   'PYMODULE'),
  ('chardet.big5prober',
   'c:\\users\\nicolas\\appdata\\local\\programs\\python\\python38\\lib\\site-packages\\chardet\\big5prober.py',
   'PYMODULE'),
  ('chardet.cp949prober',
   'c:\\users\\nicolas\\appdata\\local\\programs\\python\\python38\\lib\\site-packages\\chardet\\cp949prober.py',
   'PYMODULE'),
  ('chardet.euckrprober',
   'c:\\users\\nicolas\\appdata\\local\\programs\\python\\python38\\lib\\site-packages\\chardet\\euckrprober.py',
   'PYMODULE'),
  ('chardet.gb2312prober',
   'c:\\users\\nicolas\\appdata\\local\\programs\\python\\python38\\lib\\site-packages\\chardet\\gb2312prober.py',
   'PYMODULE'),
  ('chardet.eucjpprober',
   'c:\\users\\nicolas\\appdata\\local\\programs\\python\\python38\\lib\\site-packages\\chardet\\eucjpprober.py',
   'PYMODULE'),
  ('chardet.jpcntx',
   'c:\\users\\nicolas\\appdata\\local\\programs\\python\\python38\\lib\\site-packages\\chardet\\jpcntx.py',
   'PYMODULE'),
  ('chardet.sjisprober',
   'c:\\users\\nicolas\\appdata\\local\\programs\\python\\python38\\lib\\site-packages\\chardet\\sjisprober.py',
   'PYMODULE'),
  ('chardet.utf8prober',
   'c:\\users\\nicolas\\appdata\\local\\programs\\python\\python38\\lib\\site-packages\\chardet\\utf8prober.py',
   'PYMODULE'),
  ('chardet.latin1prober',
   'c:\\users\\nicolas\\appdata\\local\\programs\\python\\python38\\lib\\site-packages\\chardet\\latin1prober.py',
   'PYMODULE'),
  ('chardet.escprober',
   'c:\\users\\nicolas\\appdata\\local\\programs\\python\\python38\\lib\\site-packages\\chardet\\escprober.py',
   'PYMODULE'),
  ('chardet.escsm',
   'c:\\users\\nicolas\\appdata\\local\\programs\\python\\python38\\lib\\site-packages\\chardet\\escsm.py',
   'PYMODULE'),
  ('chardet.enums',
   'c:\\users\\nicolas\\appdata\\local\\programs\\python\\python38\\lib\\site-packages\\chardet\\enums.py',
   'PYMODULE'),
  ('chardet.charsetgroupprober',
   'c:\\users\\nicolas\\appdata\\local\\programs\\python\\python38\\lib\\site-packages\\chardet\\charsetgroupprober.py',
   'PYMODULE'),
  ('chardet.compat',
   'c:\\users\\nicolas\\appdata\\local\\programs\\python\\python38\\lib\\site-packages\\chardet\\compat.py',
   'PYMODULE'),
  ('urllib3',
   'c:\\users\\nicolas\\appdata\\local\\programs\\python\\python38\\lib\\site-packages\\urllib3\\__init__.py',
   'PYMODULE'),
  ('signaux_GUI', 'C:\\python\\pythonNS_library\\signaux_GUI.py', 'PYMODULE'),
  ('psutil',
   'c:\\users\\nicolas\\appdata\\local\\programs\\python\\python38\\lib\\site-packages\\psutil\\__init__.py',
   'PYMODULE'),
  ('psutil._psaix',
   'c:\\users\\nicolas\\appdata\\local\\programs\\python\\python38\\lib\\site-packages\\psutil\\_psaix.py',
   'PYMODULE'),
  ('psutil._pssunos',
   'c:\\users\\nicolas\\appdata\\local\\programs\\python\\python38\\lib\\site-packages\\psutil\\_pssunos.py',
   'PYMODULE'),
  ('psutil._psbsd',
   'c:\\users\\nicolas\\appdata\\local\\programs\\python\\python38\\lib\\site-packages\\psutil\\_psbsd.py',
   'PYMODULE'),
  ('psutil._psosx',
   'c:\\users\\nicolas\\appdata\\local\\programs\\python\\python38\\lib\\site-packages\\psutil\\_psosx.py',
   'PYMODULE'),
  ('psutil._pswindows',
   'c:\\users\\nicolas\\appdata\\local\\programs\\python\\python38\\lib\\site-packages\\psutil\\_pswindows.py',
   'PYMODULE'),
  ('psutil._pslinux',
   'c:\\users\\nicolas\\appdata\\local\\programs\\python\\python38\\lib\\site-packages\\psutil\\_pslinux.py',
   'PYMODULE'),
  ('psutil._psposix',
   'c:\\users\\nicolas\\appdata\\local\\programs\\python\\python38\\lib\\site-packages\\psutil\\_psposix.py',
   'PYMODULE'),
  ('psutil._compat',
   'c:\\users\\nicolas\\appdata\\local\\programs\\python\\python38\\lib\\site-packages\\psutil\\_compat.py',
   'PYMODULE'),
  ('psutil._common',
   'c:\\users\\nicolas\\appdata\\local\\programs\\python\\python38\\lib\\site-packages\\psutil\\_common.py',
   'PYMODULE'),
  ('curses',
   'c:\\users\\nicolas\\appdata\\local\\programs\\python\\python38\\lib\\curses\\__init__.py',
   'PYMODULE'),
  ('curses.has_key',
   'c:\\users\\nicolas\\appdata\\local\\programs\\python\\python38\\lib\\curses\\has_key.py',
   'PYMODULE'),
  ('log', 'C:\\python\\pythonNS_library\\log.py', 'PYMODULE'),
  ('PyQt5',
   'c:\\users\\nicolas\\appdata\\local\\programs\\python\\python38\\lib\\site-packages\\PyQt5\\__init__.py',
   'PYMODULE'),
  ('Serial_Nicolas',
   'C:\\python\\pythonNS_library\\Serial_Nicolas.py',
   'PYMODULE'),
  ('serial.tools.list_ports',
   'c:\\users\\nicolas\\appdata\\local\\programs\\python\\python38\\lib\\site-packages\\serial\\tools\\list_ports.py',
   'PYMODULE'),
  ('serial.tools',
   'c:\\users\\nicolas\\appdata\\local\\programs\\python\\python38\\lib\\site-packages\\serial\\tools\\__init__.py',
   'PYMODULE'),
  ('serial.tools.list_ports_common',
   'c:\\users\\nicolas\\appdata\\local\\programs\\python\\python38\\lib\\site-packages\\serial\\tools\\list_ports_common.py',
   'PYMODULE'),
  ('serial.tools.list_ports_posix',
   'c:\\users\\nicolas\\appdata\\local\\programs\\python\\python38\\lib\\site-packages\\serial\\tools\\list_ports_posix.py',
   'PYMODULE'),
  ('serial.tools.list_ports_osx',
   'c:\\users\\nicolas\\appdata\\local\\programs\\python\\python38\\lib\\site-packages\\serial\\tools\\list_ports_osx.py',
   'PYMODULE'),
  ('serial.tools.list_ports_linux',
   'c:\\users\\nicolas\\appdata\\local\\programs\\python\\python38\\lib\\site-packages\\serial\\tools\\list_ports_linux.py',
   'PYMODULE'),
  ('serial.tools.list_ports_windows',
   'c:\\users\\nicolas\\appdata\\local\\programs\\python\\python38\\lib\\site-packages\\serial\\tools\\list_ports_windows.py',
   'PYMODULE'),
  ('serial.win32',
   'c:\\users\\nicolas\\appdata\\local\\programs\\python\\python38\\lib\\site-packages\\serial\\win32.py',
   'PYMODULE'),
  ('serial',
   'c:\\users\\nicolas\\appdata\\local\\programs\\python\\python38\\lib\\site-packages\\serial\\__init__.py',
   'PYMODULE'),
  ('serial.serialjava',
   'c:\\users\\nicolas\\appdata\\local\\programs\\python\\python38\\lib\\site-packages\\serial\\serialjava.py',
   'PYMODULE'),
  ('serial.serialposix',
   'c:\\users\\nicolas\\appdata\\local\\programs\\python\\python38\\lib\\site-packages\\serial\\serialposix.py',
   'PYMODULE'),
  ('serial.serialwin32',
   'c:\\users\\nicolas\\appdata\\local\\programs\\python\\python38\\lib\\site-packages\\serial\\serialwin32.py',
   'PYMODULE'),
  ('serial.serialcli',
   'c:\\users\\nicolas\\appdata\\local\\programs\\python\\python38\\lib\\site-packages\\serial\\serialcli.py',
   'PYMODULE'),
  ('serial.serialutil',
   'c:\\users\\nicolas\\appdata\\local\\programs\\python\\python38\\lib\\site-packages\\serial\\serialutil.py',
   'PYMODULE'),
  ('threading',
   'c:\\users\\nicolas\\appdata\\local\\programs\\python\\python38\\lib\\threading.py',
   'PYMODULE'),
  ('_threading_local',
   'c:\\users\\nicolas\\appdata\\local\\programs\\python\\python38\\lib\\_threading_local.py',
   'PYMODULE'),
  ('gets_tools', 'C:\\python\\pythonNS_library\\gets_tools.py', 'PYMODULE'),
  ('stm_programmer',
   'C:\\python\\pythonNS_library\\stm_programmer.py',
   'PYMODULE'),
  ('ti_programmer',
   'C:\\python\\pythonNS_library\\ti_programmer.py',
   'PYMODULE'),
  ('get_infos_products',
   'C:\\python\\pythonNS_library\\get_infos_products.py',
   'PYMODULE'),
  ('etiqueteuse', 'C:\\python\\pythonNS_library\\etiqueteuse.py', 'PYMODULE'),
  ('brother', 'C:\\python\\pythonNS_library\\brother.py', 'PYMODULE'),
  ('google_json', 'C:\\python\\pythonNS_library\\google_json.py', 'PYMODULE'),
  ('PyQt5.uic',
   'c:\\users\\nicolas\\appdata\\local\\programs\\python\\python38\\lib\\site-packages\\PyQt5\\uic\\__init__.py',
   'PYMODULE'),
  ('PyQt5.uic.objcreator',
   'c:\\users\\nicolas\\appdata\\local\\programs\\python\\python38\\lib\\site-packages\\PyQt5\\uic\\objcreator.py',
   'PYMODULE'),
  ('PyQt5.uic.exceptions',
   'c:\\users\\nicolas\\appdata\\local\\programs\\python\\python38\\lib\\site-packages\\PyQt5\\uic\\exceptions.py',
   'PYMODULE'),
  ('PyQt5.uic.Loader.loader',
   'c:\\users\\nicolas\\appdata\\local\\programs\\python\\python38\\lib\\site-packages\\PyQt5\\uic\\Loader\\loader.py',
   'PYMODULE'),
  ('PyQt5.uic.Loader',
   'c:\\users\\nicolas\\appdata\\local\\programs\\python\\python38\\lib\\site-packages\\PyQt5\\uic\\Loader\\__init__.py',
   'PYMODULE'),
  ('PyQt5.uic.Loader.qobjectcreator',
   'c:\\users\\nicolas\\appdata\\local\\programs\\python\\python38\\lib\\site-packages\\PyQt5\\uic\\Loader\\qobjectcreator.py',
   'PYMODULE'),
  ('PyQt5.uic.uiparser',
   'c:\\users\\nicolas\\appdata\\local\\programs\\python\\python38\\lib\\site-packages\\PyQt5\\uic\\uiparser.py',
   'PYMODULE'),
  ('PyQt5.uic.properties',
   'c:\\users\\nicolas\\appdata\\local\\programs\\python\\python38\\lib\\site-packages\\PyQt5\\uic\\properties.py',
   'PYMODULE'),
  ('PyQt5.uic.port_v3.ascii_upper',
   'c:\\users\\nicolas\\appdata\\local\\programs\\python\\python38\\lib\\site-packages\\PyQt5\\uic\\port_v3\\ascii_upper.py',
   'PYMODULE'),
  ('PyQt5.uic.port_v3',
   'c:\\users\\nicolas\\appdata\\local\\programs\\python\\python38\\lib\\site-packages\\PyQt5\\uic\\port_v3\\__init__.py',
   'PYMODULE'),
  ('PyQt5.uic.icon_cache',
   'c:\\users\\nicolas\\appdata\\local\\programs\\python\\python38\\lib\\site-packages\\PyQt5\\uic\\icon_cache.py',
   'PYMODULE'),
  ('PyQt5.uic.port_v2.string_io',
   'c:\\users\\nicolas\\appdata\\local\\programs\\python\\python38\\lib\\site-packages\\PyQt5\\uic\\port_v2\\string_io.py',
   'PYMODULE'),
  ('PyQt5.uic.port_v2',
   'c:\\users\\nicolas\\appdata\\local\\programs\\python\\python38\\lib\\site-packages\\PyQt5\\uic\\port_v2\\__init__.py',
   'PYMODULE'),
  ('PyQt5.uic.port_v3.string_io',
   'c:\\users\\nicolas\\appdata\\local\\programs\\python\\python38\\lib\\site-packages\\PyQt5\\uic\\port_v3\\string_io.py',
   'PYMODULE'),
  ('PyQt5.uic.Compiler.compiler',
   'c:\\users\\nicolas\\appdata\\local\\programs\\python\\python38\\lib\\site-packages\\PyQt5\\uic\\Compiler\\compiler.py',
   'PYMODULE'),
  ('PyQt5.uic.Compiler.qobjectcreator',
   'c:\\users\\nicolas\\appdata\\local\\programs\\python\\python38\\lib\\site-packages\\PyQt5\\uic\\Compiler\\qobjectcreator.py',
   'PYMODULE'),
  ('PyQt5.uic.port_v2.as_string',
   'c:\\users\\nicolas\\appdata\\local\\programs\\python\\python38\\lib\\site-packages\\PyQt5\\uic\\port_v2\\as_string.py',
   'PYMODULE'),
  ('PyQt5.uic.port_v3.as_string',
   'c:\\users\\nicolas\\appdata\\local\\programs\\python\\python38\\lib\\site-packages\\PyQt5\\uic\\port_v3\\as_string.py',
   'PYMODULE'),
  ('PyQt5.uic.Compiler.qtproxies',
   'c:\\users\\nicolas\\appdata\\local\\programs\\python\\python38\\lib\\site-packages\\PyQt5\\uic\\Compiler\\qtproxies.py',
   'PYMODULE'),
  ('PyQt5.uic.port_v2.proxy_base',
   'c:\\users\\nicolas\\appdata\\local\\programs\\python\\python38\\lib\\site-packages\\PyQt5\\uic\\port_v2\\proxy_base.py',
   'PYMODULE'),
  ('PyQt5.uic.Compiler.proxy_metaclass',
   'c:\\users\\nicolas\\appdata\\local\\programs\\python\\python38\\lib\\site-packages\\PyQt5\\uic\\Compiler\\proxy_metaclass.py',
   'PYMODULE'),
  ('PyQt5.uic.port_v3.proxy_base',
   'c:\\users\\nicolas\\appdata\\local\\programs\\python\\python38\\lib\\site-packages\\PyQt5\\uic\\port_v3\\proxy_base.py',
   'PYMODULE'),
  ('PyQt5.uic.Compiler.misc',
   'c:\\users\\nicolas\\appdata\\local\\programs\\python\\python38\\lib\\site-packages\\PyQt5\\uic\\Compiler\\misc.py',
   'PYMODULE'),
  ('PyQt5.uic.Compiler.indenter',
   'c:\\users\\nicolas\\appdata\\local\\programs\\python\\python38\\lib\\site-packages\\PyQt5\\uic\\Compiler\\indenter.py',
   'PYMODULE'),
  ('PyQt5.uic.Compiler',
   'c:\\users\\nicolas\\appdata\\local\\programs\\python\\python38\\lib\\site-packages\\PyQt5\\uic\\Compiler\\__init__.py',
   'PYMODULE'),
  ('barcode', 'C:\\python\\pythonNS_library\\barcode.py', 'PYMODULE')])
